A08/mfp_tb.vcd
$date
	Wed Apr 03 14:41:40 2024
$end
$version
	Icarus Verilog
$end
$timescale
	1s
$end
$scope module mfp_tb $end
$var wire 32 ! ram_out_juiz [31:0] $end
$var wire 1 " done $end
$var reg 1 # clk $end
$var reg 2 $ ram_addr_juiz [1:0] $end
$var integer 32 % i [31:0] $end
$scope module dut $end
$var wire 2 & ram_addr_juiz [1:0] $end
$var wire 32 ' ram_in [31:0] $end
$var wire 32 ( rom_out [31:0] $end
$var wire 32 ) ram_out_juiz [31:0] $end
$var wire 2 * ram_addr_mux [1:0] $end
$var wire 32 + mul_z [31:0] $end
$var wire 1 , mul_done $end
$var parameter 3 - Done $end
$var parameter 3 . aloc1 $end
$var parameter 3 / aloc2 $end
$var parameter 3 0 alocRam $end
$var parameter 3 1 waitMul $end
$var reg 1 " done $end
$var reg 32 2 mul_a [31:0] $end
$var reg 32 3 mul_b [31:0] $end
$var reg 1 4 mul_clk $end
$var reg 1 5 mul_en $end
$var reg 1 6 mul_rst $end
$var reg 1 7 ram_OE $end
$var reg 1 8 ram_RW $end
$var reg 2 9 ram_addr [1:0] $end
$var reg 1 : rom_OE $end
$var reg 3 ; rom_addr [2:0] $end
$var reg 3 < state [2:0] $end
$scope module mult $end
$var wire 1 4 clk $end
$var wire 1 , done $end
$var wire 1 5 en $end
$var wire 32 = input_a [31:0] $end
$var wire 32 > input_b [31:0] $end
$var wire 1 6 rst $end
$var wire 32 ? output_z [31:0] $end
$var parameter 4 @ get_a $end
$var parameter 4 A get_b $end
$var parameter 4 B multiply_0 $end
$var parameter 4 C multiply_1 $end
$var parameter 4 D normalise_1 $end
$var parameter 4 E normalise_2 $end
$var parameter 4 F normalise_a $end
$var parameter 4 G normalise_b $end
$var parameter 4 H pack $end
$var parameter 4 I put_z $end
$var parameter 4 J round $end
$var parameter 4 K special_cases $end
$var parameter 4 L unpack $end
$var reg 32 M a [31:0] $end
$var reg 10 N a_e [9:0] $end
$var reg 24 O a_m [23:0] $end
$var reg 1 P a_s $end
$var reg 32 Q b [31:0] $end
$var reg 10 R b_e [9:0] $end
$var reg 24 S b_m [23:0] $end
$var reg 1 T b_s $end
$var reg 1 U guard $end
$var reg 48 V product [47:0] $end
$var reg 1 W round_bit $end
$var reg 1 X s_done $end
$var reg 1 Y s_en $end
$var reg 32 Z s_output_z [31:0] $end
$var reg 4 [ state [3:0] $end
$var reg 1 \ sticky $end
$var reg 32 ] z [31:0] $end
$var reg 10 ^ z_e [9:0] $end
$var reg 24 _ z_m [23:0] $end
$var reg 1 ` z_s $end
$upscope $end
$scope module ram $end
$var wire 1 7 OE $end
$var wire 1 8 RW $end
$var wire 2 a addr [1:0] $end
$var wire 32 b in [31:0] $end
$var reg 32 c out [31:0] $end
$upscope $end
$scope module rom $end
$var wire 1 : OE $end
$var wire 3 d addr [2:0] $end
$var reg 32 e out [31:0] $end
$upscope $end
$upscope $end
$upscope $end
$enddefinitions $end
$comment Show the parameter values. $end
$dumpall
b10 L
b11 K
b1010 J
b1100 I
b1011 H
b101 G
b100 F
b1001 E
b1000 D
b111 C
b110 B
b1 A
b0 @
b10 1
b11 0
b1 /
b0 .
b100 -
$end
#0
$dumpvars
b10101001101010000000001110110 e
b0 d
bz c
bx b
b0 a
x`
bx _
bx ^
bx ]
x\
b0 [
bx Z
0Y
0X
xW
bx V
xU
xT
bx S
bx R
bx Q
xP
bx O
bx N
bx M
bx ?
bx >
bx =
b0 <
b0 ;
1:
b0 9
18
x7
x6
x5
04
bx 3
bx 2
0,
bx +
b0 *
bz )
b10101001101010000000001110110 (
bx '
b0 &
bx %
b0 $
0#
x"
bz !
$end
#1
06
1#
14
#2
b10101001101010000000001110110 2
b10101001101010000000001110110 =
0#
04
#3
bz (
bz e
0:
1#
14
#4
b1 <
0#
04
#5
b1011001010100100101100110011111 (
b1011001010100100101100110011111 e
1:
b1 ;
b1 d
1#
14
#6
15
b1011001010100100101100110011111 3
b1011001010100100101100110011111 >
0#
04
#7
b1 [
b10101001101010000000001110110 M
bz (
bz e
0:
1#
14
#8
b10 <
0#
04
#9
b10 [
b1011001010100100101100110011111 Q
1#
14
#10
0#
04
#11
b11 [
0T
0P
b110011 R
b1110101011 N
b10100100101100110011111 S
b1101010000000001110110 O
1#
14
#12
0#
04
#13
b100 [
b110100100101100110011111 S
b101101010000000001110110 O
1#
14
#14
0#
04
#15
b101 [
1#
14
#16
0#
04
#17
b110 [
1#
14
#18
0#
04
#19
b111 [
b100101001011100110111110011000000100111101001010 V
b1111011111 ^
0`
1#
14
#20
0#
04
#21
b1000 [
1\
1W
0U
b100101001011100110111110 _
1#
14
#22
0#
04
#23
b1001 [
1#
14
#24
0#
04
#25
b1010 [
1#
14
#26
0#
04
#27
b1011 [
1#
14
#28
0#
04
#29
b1100 [
b101111000101001011100110111110 ]
1#
14
#30
0#
04
#31
b0 [
1,
1X
b101111000101001011100110111110 '
b101111000101001011100110111110 b
b101111000101001011100110111110 +
b101111000101001011100110111110 ?
b101111000101001011100110111110 Z
1#
14
#32
0#
04
#33
b1 [
0,
0X
b11 <
1#
14
#34
b1 *
b1 a
b1 9
16
07
0#
04
#35
b0 [
b0 <
1#
14
#36
b111111100000000000000000000000 (
b111111100000000000000000000000 e
1:
b10 ;
b10 d
06
0#
04
#37
b1 [
b111111100000000000000000000000 M
b111111100000000000000000000000 2
b111111100000000000000000000000 =
1#
14
#38
bz (
bz e
0:
0#
04
#39
b10 [
b1 <
1#
14
#40
b111110100000000000000000000000 (
b111110100000000000000000000000 e
1:
b11 ;
b11 d
0#
04
#41
b11 [
b0 N
b10100100101100110011111 S
b0 O
b111110100000000000000000000000 3
b111110100000000000000000000000 >
1#
14
#42
bz (
bz e
0:
0#
04
#43
b100 [
b110100100101100110011111 S
b100000000000000000000000 O
b10 <
1#
14
#44
0#
04
#45
b101 [
1#
14
#46
0#
04
#47
b110 [
1#
14
#48
0#
04
#49
b111 [
b11010010010110011001111100000000000000000000000 V
b110100 ^
1#
14
#50
0#
04
#51
b1000 [
0\
0W
1U
b11010010010110011001111 _
1#
14
#52
0#
04
#53
0U
b110100100101100110011111 _
b110011 ^
1#
14
#54
0#
04
#55
b1001 [
1#
14
#56
0#
04
#57
b1010 [
1#
14
#58
0#
04
#59
b1011 [
1#
14
#60
0#
04
#61
b1100 [
b1011001010100100101100110011111 ]
1#
14
#62
0#
04
#63
b0 [
1,
1X
b1011001010100100101100110011111 '
b1011001010100100101100110011111 b
b1011001010100100101100110011111 +
b1011001010100100101100110011111 ?
b1011001010100100101100110011111 Z
1#
14
#64
0#
04
#65
b1 [
0,
0X
b11 <
1#
14
#66
b10 *
b10 a
b10 9
16
0#
04
#67
b0 [
b111110100000000000000000000000 Q
b0 <
1#
14
#68
b1000000010000000000000000000000 (
b1000000010000000000000000000000 e
1:
b100 ;
b100 d
06
0#
04
#69
b1 [
b1000000010000000000000000000000 M
b1000000010000000000000000000000 2
b1000000010000000000000000000000 =
1#
14
#70
bz (
bz e
0:
0#
04
#71
b10 [
b1 <
1#
14
#72
b1000001001000000000000000000000 (
b1000001001000000000000000000000 e
1:
b101 ;
b101 d
0#
04
#73
b11 [
b1111111110 R
b1 N
b0 S
b10000000000000000000000 O
b1000001001000000000000000000000 3
b1000001001000000000000000000000 >
1#
14
#74
bz (
bz e
0:
0#
04
#75
b100 [
b100000000000000000000000 S
b110000000000000000000000 O
b10 <
1#
14
#76
0#
04
#77
b101 [
1#
14
#78
0#
04
#79
b110 [
1#
14
#80
0#
04
#81
b111 [
b11000000000000000000000000000000000000000000000 V
b0 ^
1#
14
#82
0#
04
#83
b1000 [
b11000000000000000000000 _
1#
14
#84
0#
04
#85
b110000000000000000000000 _
b1111111111 ^
1#
14
#86
0#
04
#87
b1001 [
1#
14
#88
0#
04
#89
b1010 [
1#
14
#90
0#
04
#91
b1011 [
1#
14
#92
0#
04
#93
b1100 [
b111111010000000000000000000000 ]
1#
14
#94
0#
04
#95
b0 [
1,
1X
b111111010000000000000000000000 '
b111111010000000000000000000000 b
b111111010000000000000000000000 +
b111111010000000000000000000000 ?
b111111010000000000000000000000 Z
1#
14
#96
0#
04
#97
b1 [
0,
0X
b11 <
1#
14
#98
b11 *
b11 a
b11 9
16
0#
04
#99
b0 [
b1000001001000000000000000000000 Q
b0 <
1#
14
#100
b111110101000000000000000000000 (
b111110101000000000000000000000 e
1:
b110 ;
b110 d
06
0#
04
#101
b1 [
b111110101000000000000000000000 M
b111110101000000000000000000000 2
b111110101000000000000000000000 =
1#
14
#102
bz (
bz e
0:
0#
04
#103
b10 [
b1 <
1#
14
#104
b111111011000000000000000000000 (
b111111011000000000000000000000 e
1:
b111 ;
b111 d
0#
04
#105
b11 [
b11 R
b1111111110 N
b1000000000000000000000 S
b1000000000000000000000 O
b111111011000000000000000000000 3
b111111011000000000000000000000 >
1#
14
#106
bz (
bz e
0:
0#
04
#107
b100 [
b101000000000000000000000 S
b101000000000000000000000 O
b10 <
1#
14
#108
0#
04
#109
b101 [
1#
14
#110
0#
04
#111
b110 [
1#
14
#112
0#
04
#113
b111 [
b11001000000000000000000000000000000000000000000 V
b10 ^
1#
14
#114
0#
04
#115
b1000 [
b11001000000000000000000 _
1#
14
#116
0#
04
#117
b110010000000000000000000 _
b1 ^
1#
14
#118
0#
04
#119
b1001 [
1#
14
#120
0#
04
#121
b1010 [
1#
14
#122
0#
04
#123
b1011 [
1#
14
#124
0#
04
#125
b1100 [
b1000000010010000000000000000000 ]
1#
14
#126
0#
04
#127
b0 [
1,
1X
b1000000010010000000000000000000 '
b1000000010010000000000000000000 b
b1000000010010000000000000000000 +
b1000000010010000000000000000000 ?
b1000000010010000000000000000000 Z
1#
14
#128
0#
04
#129
b1 [
0,
0X
b11 <
1#
14
#130
0#
04
#131
b10 [
b111111011000000000000000000000 Q
b100 <
1#
14
#132
b0 *
b0 a
b101111000101001011100110111110 !
b101111000101001011100110111110 )
b101111000101001011100110111110 c
08
17
1"
0#
04
#133
b11 [
b1111111111 R
b11000000000000000000000 S
b1000000000000000000000 O
b0 %
1#
14
#134
b1011001010100100101100110011111 !
b1011001010100100101100110011111 )
b1011001010100100101100110011111 c
b1 *
b1 a
b1 $
b1 &
b1 %
0#
04
#135
b100 [
b111000000000000000000000 S
b101000000000000000000000 O
b111111010000000000000000000000 !
b111111010000000000000000000000 )
b111111010000000000000000000000 c
b10 *
b10 a
b10 $
b10 &
b10 %
1#
14
#136
b1000000010010000000000000000000 !
b1000000010010000000000000000000 )
b1000000010010000000000000000000 c
b11 *
b11 a
b11 $
b11 &
b11 %
0#
04
#137
b101 [
b100 %
1#
14
#138
0#
04
#139
b110 [
1#
14
#140
0#
04
#141
b111 [
b100011000000000000000000000000000000000000000000 V
b1111111110 ^
1#
14
#142
0#
04
#143
b1000 [
b100011000000000000000000 _
1#
14
#144
0#
04
#145
b1001 [
1#
14
#146
0#
04
#147
b1010 [
1#
14
#148
0#
04
#149
b1011 [
1#
14
#150
0#
04
#151
b1100 [
b111110100011000000000000000000 ]
1#
14
#152
0#
04
#153
b0 [
1,
1X
b111110100011000000000000000000 '
b111110100011000000000000000000 b
b111110100011000000000000000000 +
b111110100011000000000000000000 ?
b111110100011000000000000000000 Z
1#
14
#154
0#
04
#155
b1 [
0,
0X
1#
14
#156
0#
04
#157
b10 [
1#
14
#158
0#
04
#159
b11 [
b11000000000000000000000 S
b1000000000000000000000 O
1#
14
#160
0#
04
#161
b100 [
b111000000000000000000000 S
b101000000000000000000000 O
1#
14
#162
0#
04
#163
b101 [
1#
14
#164
0#
04
#165
b110 [
1#
14
#166
0#
04
#167
b111 [
1#
14
#168
0#
04
#169
b1000 [
1#
14
#170
0#
04
#171
b1001 [
1#
14
#172
0#
04
#173
b1010 [
1#
14
#174
0#
04
#175
b1011 [
1#
14
#176
0#
04
#177
b1100 [
1#
14
#178
0#
04
#179
b0 [
1,
1X
1#
14
#180
0#
04
#181
b1 [
0,
0X
1#
14
#182
0#
04
#183
b10 [
1#
14
#184
0#
04
#185
b11 [
b11000000000000000000000 S
b1000000000000000000000 O
1#
14
#186
0#
04
#187
b100 [
b111000000000000000000000 S
b101000000000000000000000 O
1#
14
#188
0#
04
#189
b101 [
1#
14
#190
0#
04
#191
b110 [
1#
14
#192
0#
04
#193
b111 [
1#
14
#194
0#
04
#195
b1000 [
1#
14
#196
0#
04
#197
b1001 [
1#
14
#198
0#
04
#199
b1010 [
1#
14
#200
0#
04
#201
b1011 [
1#
14
#202
0#
04
#203
b1100 [
1#
14
#204
0#
04
#205
b0 [
1,
1X
1#
14
#206
0#
04
#207
b1 [
0,
0X
1#
14
#208
0#
04
#209
b10 [
1#
14
#210
0#
04
#211
b11 [
b11000000000000000000000 S
b1000000000000000000000 O
1#
14
#212
0#
04
#213
b100 [
b111000000000000000000000 S
b101000000000000000000000 O
1#
14
#214
0#
04
#215
b101 [
1#
14
#216
0#
04
#217
b110 [
1#
14
#218
0#
04
#219
b111 [
1#
14
#220
0#
04
#221
b1000 [
1#
14
#222
0#
04
#223
b1001 [
1#
14
#224
0#
04
#225
b1010 [
1#
14
#226
0#
04
#227
b1011 [
1#
14
#228
0#
04
#229
b1100 [
1#
14
#230
0#
04
#231
b0 [
1,
1X
1#
14
#232
0#
04
#233
b1 [
0,
0X
1#
14
#234
0#
04
#235
b10 [
1#
14
#236
0#
04
#237
b11 [
b11000000000000000000000 S
b1000000000000000000000 O
1#
14
