EP01/tb_double_dabble.vcd
$date
	Fri Mar 22 08:08:16 2024
$end
$version
	Icarus Verilog
$end
$timescale
	1s
$end
$scope module tb_double_dabble $end
$var wire 1 ! done $end
$var wire 24 " bcd [23:0] $end
$var parameter 32 # W $end
$var reg 18 $ binary [17:0] $end
$var reg 1 % clk $end
$var reg 1 & rst $end
$var reg 1 ' start $end
$scope module dut $end
$var wire 24 ( bcd [23:0] $end
$var wire 18 ) binary [17:0] $end
$var wire 1 % clk $end
$var wire 1 ! done $end
$var wire 1 & rst $end
$var wire 1 ' start $end
$var parameter 32 * W $end
$var parameter 2 + alocState $end
$var parameter 2 , correctiontState $end
$var parameter 2 - doneState $end
$var real 1 . maxBcd $end
$var parameter 2 / shiftState $end
$var reg 24 0 Rbcd [23:0] $end
$var reg 18 1 Rbin [17:0] $end
$var reg 1 2 doneControl $end
$var reg 2 3 state [1:0] $end
$var reg 24 4 temp [23:0] $end
$var integer 32 5 i [31:0] $end
$var integer 32 6 j [31:0] $end
$scope begin genblk1[0] $end
$var parameter 2 7 maxBcd_g $end
$scope module add3or0_0 $end
$var wire 4 8 bcd_i [3:0] $end
$var wire 4 9 bcd_o [3:0] $end
$upscope $end
$upscope $end
$scope begin genblk1[1] $end
$var parameter 2 : maxBcd_g $end
$scope module add3or0_0 $end
$var wire 4 ; bcd_i [3:0] $end
$var wire 4 < bcd_o [3:0] $end
$upscope $end
$upscope $end
$scope begin genblk1[2] $end
$var parameter 3 = maxBcd_g $end
$scope module add3or0_0 $end
$var wire 4 > bcd_i [3:0] $end
$var wire 4 ? bcd_o [3:0] $end
$upscope $end
$upscope $end
$scope begin genblk1[3] $end
$var parameter 3 @ maxBcd_g $end
$scope module add3or0_0 $end
$var wire 4 A bcd_i [3:0] $end
$var wire 4 B bcd_o [3:0] $end
$upscope $end
$upscope $end
$scope begin genblk1[4] $end
$var parameter 4 C maxBcd_g $end
$scope module add3or0_0 $end
$var wire 4 D bcd_i [3:0] $end
$var wire 4 E bcd_o [3:0] $end
$upscope $end
$upscope $end
$scope begin genblk1[5] $end
$var parameter 4 F maxBcd_g $end
$scope module add3or0_0 $end
$var wire 4 G bcd_i [3:0] $end
$var wire 4 H bcd_o [3:0] $end
$upscope $end
$upscope $end
$upscope $end
$upscope $end
$enddefinitions $end
$comment Show the parameter values. $end
$dumpall
b101 F
b100 C
b11 @
b10 =
b1 :
b0 7
b1 /
r6 .
b11 -
b10 ,
b0 +
b10010 *
b10010 #
$end
#0
$dumpvars
bx H
bx G
bx E
bx D
bx B
bx A
bx ?
bx >
bx <
bx ;
bx 9
bx 8
b0 6
b0 5
bx 4
bx 3
x2
bx 1
bx 0
bx )
bx (
x'
x&
0%
bx $
bx "
x!
$end
#1
b0 3
1%
#2
0%
#3
b0 9
b0 <
b0 ?
b0 B
b0 E
b0 H
b0 8
b0 ;
b0 >
b0 A
b0 D
b0 G
b0 "
b0 (
b0 0
1%
#4
0%
#5
1%
#6
0%
#7
1%
#8
0%
#9
1%
#10
0%
0&
#11
1%
#12
0%
#13
1%
#14
0%
#15
1%
#16
0%
#17
1%
#18
0%
#19
1%
#20
0%
1'
b11001001011111 $
b11001001011111 )
#21
b1 3
b11001001011111 1
1%
#22
0%
#23
b110010010111110 1
b10 3
b1 5
1%
#24
0%
#25
b1 3
b0 4
b11111111111111111111111111111111 6
1%
#26
0%
#27
b1100100101111100 1
b10 3
b10 5
1%
#28
0%
#29
b1 3
b0 4
b11111111111111111111111111111111 6
1%
#30
0%
#31
b11001001011111000 1
b10 3
b11 5
1%
#32
0%
#33
b1 3
b0 4
b11111111111111111111111111111111 6
1%
#34
0%
#35
b110010010111110000 1
b10 3
b100 5
1%
#36
0%
#37
b1 3
b0 4
b11111111111111111111111111111111 6
1%
#38
0%
#39
b1 9
b1 8
b100100101111100000 1
b1 "
b1 (
b1 0
b10 3
b101 5
1%
#40
0%
#41
b1 3
b1 4
b11111111111111111111111111111111 6
1%
#42
0%
#43
b11 9
b11 8
b1001011111000000 1
b11 "
b11 (
b11 0
b10 3
b110 5
1%
#44
0%
#45
b1 3
b11 4
b11111111111111111111111111111111 6
1%
#46
0%
#47
b1001 9
b110 8
b10010111110000000 1
b110 "
b110 (
b110 0
b10 3
b111 5
1%
#48
0%
#49
b1100 9
b1001 8
b1 3
b1001 "
b1001 (
b1001 0
b1001 4
b11111111111111111111111111111111 6
1%
#50
0%
#51
b10 9
b1 <
b10 8
b1 ;
b100101111100000000 1
b10010 "
b10010 (
b10010 0
b10 3
b1000 5
1%
#52
0%
#53
b1 3
b10010 4
b11111111111111111111111111111111 6
1%
#54
0%
#55
b1000 9
b10 <
b101 8
b10 ;
b1011111000000000 1
b100101 "
b100101 (
b100101 0
b10 3
b1001 5
1%
#56
0%
#57
b1011 9
b1000 8
b1 3
b101000 "
b101000 (
b101000 0
b101000 4
b11111111111111111111111111111111 6
1%
#58
0%
#59
b0 9
b1000 <
b0 8
b101 ;
b10111110000000000 1
b1010000 "
b1010000 (
b1010000 0
b10 3
b1010 5
1%
#60
0%
#61
b1011 <
b1000 ;
b1 3
b10000000 "
b10000000 (
b10000000 0
b10000000 4
b11111111111111111111111111111111 6
1%
#62
0%
#63
b0 <
b1 ?
b0 ;
b1 >
b101111100000000000 1
b100000000 "
b100000000 (
b100000000 0
b10 3
b1011 5
1%
#64
0%
#65
b1 3
b100000000 4
b11111111111111111111111111111111 6
1%
#66
0%
#67
b1 9
b10 ?
b1 8
b10 >
b11111000000000000 1
b1000000001 "
b1000000001 (
b1000000001 0
b10 3
b1100 5
1%
#68
0%
#69
b1 3
b1000000001 4
b11111111111111111111111111111111 6
1%
#70
0%
#71
b10 9
b100 ?
b10 8
b100 >
b111110000000000000 1
b10000000010 "
b10000000010 (
b10000000010 0
b10 3
b1101 5
1%
#72
0%
#73
b1 3
b10000000010 4
b11111111111111111111111111111111 6
1%
#74
0%
#75
b1000 9
b1011 ?
b101 8
b1000 >
b111100000000000000 1
b100000000101 "
b100000000101 (
b100000000101 0
b10 3
b1110 5
1%
#76
0%
#77
b1011 9
b1110 ?
b1000 8
b1011 >
b1 3
b101100001000 "
b101100001000 (
b101100001000 0
b101100001000 4
b11111111111111111111111111111111 6
1%
#78
0%
#79
b1 9
b1 <
b1001 ?
b1 B
b1 8
b1 ;
b110 >
b1 A
b111000000000000000 1
b1011000010001 "
b1011000010001 (
b1011000010001 0
b10 3
b1111 5
1%
#80
0%
#81
b1100 ?
b1001 >
b1 3
b1100100010001 "
b1100100010001 (
b1100100010001 0
b1100100010001 4
b11111111111111111111111111111111 6
1%
#82
0%
#83
b11 9
b10 <
b10 ?
b11 B
b11 8
b10 ;
b10 >
b11 A
b110000000000000000 1
b11001000100011 "
b11001000100011 (
b11001000100011 0
b10 3
b10000 5
1%
#84
0%
#85
b1 3
b11001000100011 4
b11111111111111111111111111111111 6
1%
#86
0%
#87
b1010 9
b100 <
b100 ?
b1001 B
b111 8
b100 ;
b100 >
b110 A
b100000000000000000 1
b110010001000111 "
b110010001000111 (
b110010001000111 0
b10 3
b10001 5
1%
#88
0%
#89
b1101 9
b1100 B
b1010 8
b1001 A
b1 3
b1001010001001010 "
b1001010001001010 (
b1001010001001010 0
b1001010001001010 4
b11111111111111111111111111111111 6
1%
#90
0%
#91
b1000 9
b1100 <
b1011 ?
b10 B
b1 E
b101 8
b1001 ;
b1000 >
b10 A
b1 D
b0 1
b10010100010010101 "
b10010100010010101 (
b10010100010010101 0
b11 3
b10010 5
1%
#92
0%
#93
1!
12
1%
#94
0%
#95
1%
#96
0%
#97
1%
#98
0%
#99
1%
#100
0%
#101
1%
#102
0%
#103
1%
#104
0%
#105
1%
#106
0%
#107
1%
#108
0%
#109
1%
#110
0%
#111
1%
#112
0%
#113
1%
#114
0%
#115
1%
#116
0%
#117
1%
#118
0%
#119
1%
#120
0%
b1101010001001001 $
b1101010001001001 )
0'
#121
b0 3
1%
#122
0%
#123
b0 9
b0 <
b0 ?
b0 B
b0 E
b0 8
b0 ;
b0 >
b0 A
b0 D
b0 5
b0 "
b0 (
b0 0
b1101010001001001 1
1%
#124
0%
#125
1%
#126
0%
#127
1%
#128
0%
#129
1%
#130
0%
#131
1%
#132
0%
#133
1%
#134
0%
#135
b1 3
1%
1'
#136
0%
#137
b11010100010010010 1
b10 3
b1 5
1%
#138
0%
#139
b1 3
b0 4
b11111111111111111111111111111111 6
1%
#140
0%
#141
b110101000100100100 1
b10 3
b10 5
1%
#142
0%
#143
b1 3
b0 4
b11111111111111111111111111111111 6
1%
#144
0%
#145
b1 9
b1 8
b101010001001001000 1
b1 "
b1 (
b1 0
b10 3
b11 5
1%
#146
0%
#147
b1 3
b1 4
b11111111111111111111111111111111 6
1%
#148
0%
#149
b11 9
b11 8
b10100010010010000 1
b11 "
b11 (
b11 0
b10 3
b100 5
1%
#150
0%
#151
b1 3
b11 4
b11111111111111111111111111111111 6
1%
#152
0%
#153
b1001 9
b110 8
b101000100100100000 1
b110 "
b110 (
b110 0
b10 3
b101 5
1%
#154
0%
#155
b1100 9
b1001 8
b1 3
b1001 "
b1001 (
b1001 0
b1001 4
b11111111111111111111111111111111 6
1%
#156
0%
#157
b11 9
b1 <
b11 8
b1 ;
b10001001001000000 1
b10011 "
b10011 (
b10011 0
b10 3
b110 5
1%
#158
0%
#159
b1 3
b10011 4
b11111111111111111111111111111111 6
1%
#160
0%
#161
b1001 9
b10 <
b110 8
b10 ;
b100010010010000000 1
b100110 "
b100110 (
b100110 0
b10 3
b111 5
1%
#162
0%
#163
b1100 9
b1001 8
b1 3
b101001 "
b101001 (
b101001 0
b101001 4
b11111111111111111111111111111111 6
1%
#164
0%
#165
b11 9
b1000 <
b11 8
b101 ;
b100100100000000 1
b1010011 "
b1010011 (
b1010011 0
b10 3
b1000 5
1%
#166
0%
#167
b1011 <
b1000 ;
b1 3
b10000011 "
b10000011 (
b10000011 0
b10000011 4
b11111111111111111111111111111111 6
1%
#168
0%
#169
b1001 9
b0 <
b1 ?
b110 8
b0 ;
b1 >
b1001001000000000 1
b100000110 "
b100000110 (
b100000110 0
b10 3
b1001 5
1%
#170
0%
#171
b1100 9
b1001 8
b1 3
b100001001 "
b100001001 (
b100001001 0
b100001001 4
b11111111111111111111111111111111 6
1%
#172
0%
#173
b10 9
b1 <
b10 ?
b10 8
b1 ;
b10 >
b10010010000000000 1
b1000010010 "
b1000010010 (
b1000010010 0
b10 3
b1010 5
1%
#174
0%
#175
b1 3
b1000010010 4
b11111111111111111111111111111111 6
1%
#176
0%
#177
b100 9
b10 <
b100 ?
b100 8
b10 ;
b100 >
b100100100000000000 1
b10000100100 "
b10000100100 (
b10000100100 0
b10 3
b1011 5
1%
#178
0%
#179
b1 3
b10000100100 4
b11111111111111111111111111111111 6
1%
#180
0%
#181
b1100 9
b100 <
b1011 ?
b1001 8
b100 ;
b1000 >
b1001000000000000 1
b100001001001 "
b100001001001 (
b100001001001 0
b10 3
b1100 5
1%
#182
0%
#183
b1111 9
b1110 ?
b1100 8
b1011 >
b1 3
b101101001100 "
b101101001100 (
b101101001100 0
b101101001100 4
b11111111111111111111111111111111 6
1%
#184
0%
#185
b1011 9
b1100 <
b1001 ?
b1 B
b1000 8
b1001 ;
b110 >
b1 A
b10010000000000000 1
b1011010011000 "
b1011010011000 (
b1011010011000 0
b10 3
b1101 5
1%
#186
0%
#187
b1110 9
b1111 <
b1100 ?
b1011 8
b1100 ;
b1001 >
b1 3
b1100111001011 "
b1100111001011 (
b1100111001011 0
b1100111001011 4
b11111111111111111111111111111111 6
1%
#188
0%
#189
b1001 9
b1100 <
b11 ?
b11 B
b110 8
b1001 ;
b11 >
b11 A
b100100000000000000 1
b11001110010110 "
b11001110010110 (
b11001110010110 0
b10 3
b1110 5
1%
#190
0%
#191
b1100 9
b1111 <
b1001 8
b1100 ;
b1 3
b11001111001001 "
b11001111001001 (
b11001111001001 0
b11001111001001 4
b11111111111111111111111111111111 6
1%
#192
0%
#193
b11 9
b1100 <
b1010 ?
b1001 B
b11 8
b1001 ;
b111 >
b110 A
b1000000000000000 1
b110011110010011 "
b110011110010011 (
b110011110010011 0
b10 3
b1111 5
1%
#194
0%
#195
b1111 <
b1101 ?
b1100 B
b1100 ;
b1010 >
b1001 A
b1 3
b1001101011000011 "
b1001101011000011 (
b1001101011000011 0
b1001101011000011 4
b11111111111111111111111111111111 6
1%
#196
0%
#197
b1001 9
b1011 <
b1000 ?
b11 B
b1 E
b110 8
b1000 ;
b101 >
b11 A
b1 D
b10000000000000000 1
b10011010110000110 "
b10011010110000110 (
b10011010110000110 0
b10 3
b10000 5
1%
#198
0%
#199
b1100 9
b1110 <
b1011 ?
b1001 8
b1011 ;
b1000 >
b1 3
b10011100010111001 "
b10011100010111001 (
b10011100010111001 0
b10011100010111001 4
b11111111111111111111111111111111 6
1%
#200
0%
#201
b10 9
b1010 <
b1 ?
b1010 B
b10 E
b10 8
b111 ;
b1 >
b111 A
b10 D
b100000000000000000 1
b100111000101110010 "
b100111000101110010 (
b100111000101110010 0
b10 3
b10001 5
1%
#202
0%
#203
b1101 <
b1101 B
b1010 ;
b1010 A
b1 3
b101010000110100010 "
b101010000110100010 (
b101010000110100010 0
b101010000110100010 4
b11111111111111111111111111111111 6
1%
#204
0%
#205
b1000 9
b100 <
b11 ?
b100 B
b1000 E
b101 8
b100 ;
b11 >
b100 A
b101 D
b0 1
b1010100001101000101 "
b1010100001101000101 (
b1010100001101000101 0
b11 3
b10010 5
1%
