EP02/testbench.vcd
$date
	Fri Apr 19 17:38:01 2024
$end
$version
	Icarus Verilog
$end
$timescale
	1s
$end
$scope module testbench $end
$var wire 32 ! data [31:0] $end
$var reg 1 " clock $end
$var reg 1 # opera $end
$var reg 5 $ read [4:0] $end
$var reg 1 % reset $end
$var integer 32 & i [31:0] $end
$scope module uut $end
$var wire 1 " clock $end
$var wire 32 ' data [31:0] $end
$var wire 1 # opera $end
$var wire 5 ( read [4:0] $end
$var wire 1 % reset $end
$var wire 32 ) romOut [31:0] $end
$var wire 5 * regRead1Mux [4:0] $end
$var wire 32 + regOut2 [31:0] $end
$var wire 32 , regOut1 [31:0] $end
$var wire 32 - AluOut [31:0] $end
$var wire 32 . AluBMUX [31:0] $end
$var parameter 4 / AandB $end
$var parameter 4 0 AlessthanB $end
$var parameter 4 1 AminusB $end
$var parameter 4 2 AnorB $end
$var parameter 4 3 AorB $end
$var parameter 4 4 AplusB $end
$var parameter 32 5 W $end
$var reg 4 6 AluCtl [3:0] $end
$var reg 32 7 out [31:0] $end
$var reg 1 8 regWE $end
$var reg 4 9 romAddr [3:0] $end
$var reg 1 : romOE $end
$var integer 32 ; i [31:0] $end
$scope module alu $end
$var wire 4 < ALUctl [3:0] $end
$var wire 32 = B [31:0] $end
$var wire 1 > Overflow $end
$var wire 1 ? Zero $end
$var wire 32 @ ALUout [31:0] $end
$var wire 32 A A [31:0] $end
$var parameter 32 B W $end
$var reg 32 C add [31:0] $end
$var reg 32 D outreg [31:0] $end
$var reg 1 E overf $end
$var reg 32 F sub [31:0] $end
$var reg 32 G temp [31:0] $end
$upscope $end
$scope module rf $end
$var wire 32 H Data1 [31:0] $end
$var wire 32 I Data2 [31:0] $end
$var wire 5 J Read1 [4:0] $end
$var wire 5 K Read2 [4:0] $end
$var wire 1 8 RegWrite $end
$var wire 32 L WriteData [31:0] $end
$var wire 5 M WriteReg [4:0] $end
$var wire 1 " clock $end
$var parameter 32 N W $end
$upscope $end
$scope module rom $end
$var wire 4 O address [3:0] $end
$var wire 1 : oe $end
$var wire 32 P data [31:0] $end
$var parameter 32 Q L $end
$var parameter 32 R W $end
$upscope $end
$upscope $end
$upscope $end
$enddefinitions $end
$comment Show the parameter values. $end
$dumpall
b100000 R
b10000 Q
b100000 N
b100000 B
b100000 5
b10 4
b1 3
b1100 2
b110 1
b111 0
b0 /
$end
#0
$dumpvars
b100000000000000010011 P
b0 O
b0 M
bx L
b1 K
b0 J
bx I
b0 H
b11111111111111111111111111111111 G
b11111111111111111111111111111111 F
xE
bx D
b1 C
b0 A
bx @
x?
x>
b1 =
bx <
b0 ;
1:
b0 9
08
bx 7
bx 6
b1 .
bx -
b0 ,
bx +
b0 *
b100000000000000010011 )
b0 (
bx '
bx &
0%
b0 $
0#
0"
bx !
$end
#1
1"
1%
#2
b0 !
b0 '
b0 7
0"
0%
#3
18
0>
0E
0?
b1 -
b1 @
b1 D
b1 L
b1 ;
b10 6
b10 <
bz !
bz '
bz 7
1"
1#
b1 $
b1 (
#4
0"
#5
b1 M
b100000000000010010011 )
b100000000000010010011 P
b1 9
b1 O
b10 ;
1"
#6
0"
#7
b10 -
b10 @
b10 D
b10 L
b10 C
b0 F
b1 ,
b1 A
b1 H
b1 *
b1 J
b100001000000010110011 )
b100001000000010110011 P
b10 9
b10 O
b1 +
b1 I
b11 ;
1"
#8
0"
#9
b10 F
b10 M
b0 K
b1000000100110011 )
b1000000100110011 P
b11 9
b11 O
b10 -
b10 @
b10 D
b10 L
b10 C
b0 G
b0 .
b0 =
b10 ,
b10 A
b10 H
b0 +
b0 I
b100 ;
1"
#10
0"
#11
b100 -
b100 @
b100 D
b100 L
b100 C
b11111111111111111111111111111110 G
b0 F
b10 .
b10 =
b11 M
b10 +
b10 I
b10 K
b1000001000000110110011 )
b1000001000000110110011 P
b100 9
b100 O
b101 ;
1"
#12
0"
#13
b110 -
b110 @
b110 D
b110 L
b110 C
b11111111111111111111111111111100 G
b11111111111111111111111111111110 F
b100 .
b100 =
b100 M
b100 +
b100 I
b11 K
b1100001010001000110011 )
b1100001010001000110011 P
b101 9
b101 O
b110 ;
1"
#14
0"
#15
b1010 C
b11111111111111111111111111111010 G
b110 .
b110 =
b100 ,
b100 A
b100 H
b11 *
b11 J
b101 M
b110 +
b110 I
b100 K
b1000000010000011000001010110011 )
b1000000010000011000001010110011 P
b110 9
b110 O
b1 -
b1 @
b1 D
b1 L
b111 ;
b111 6
b111 <
1"
#16
0"
#17
b101 C
b11111111111111111111111111111100 G
b11111111111111111111111111111101 F
b100 .
b100 =
b1 ,
b1 A
b1 H
b101 *
b101 J
b110 M
b100 +
b100 I
b11 K
b1100101110001100110011 )
b1100101110001100110011 P
b111 9
b111 O
b101 -
b101 @
b101 D
b101 L
b1000 ;
b10 6
b10 <
1"
#18
0"
#19
b111 -
b111 @
b111 D
b111 L
b111 C
b11111111111111111111111111111010 G
b11111111111111111111111111111011 F
b110 .
b110 =
b111 M
b110 +
b110 I
b100 K
b10000101111001110110011 )
b10000101111001110110011 P
b1000 9
b1000 O
b1001 ;
b1 6
b1 <
1"
#20
0"
#21
b1000000000110 C
b11111111111111111111000000000001 G
b11111111111111111111000000001000 F
b111 ,
b111 A
b111 H
b111 *
b111 J
b111111111111 .
b111111111111 =
bx +
bx I
b11111 K
b11111111111100111110001110010011 )
b11111111111100111110001110010011 P
b1001 9
b1001 O
0?
b111 -
b111 @
b111 D
b111 L
b1010 ;
b0 6
b0 <
1"
#22
0"
#23
b1000 C
b11111111111111111111111111111111 G
b110 F
b1 .
b1 =
b1000 M
b10 +
b10 I
b1 K
b100111010010000010011 )
b100111010010000010011 P
b1010 9
b1010 O
b111 -
b111 @
b111 D
b111 L
b1011 ;
b1 6
b1 <
1"
#24
0"
#25
b1001 M
b100111111010010010011 )
b100111111010010010011 P
b1011 9
b1011 O
1?
b0 -
b0 @
b0 D
b0 L
b1100 ;
b111 6
b111 <
1"
#26
0"
#27
b1010 M
b100111000010100010011 )
b100111000010100010011 P
b1100 9
b1100 O
0?
b1 -
b1 @
b1 D
b1 L
b1101 ;
b0 6
b0 <
1"
#28
0"
#29
b1 C
b0 G
b1 F
b1 ,
b1 A
b1 H
b1010 *
b1010 J
b0 .
b0 =
b0 M
b0 +
b0 I
b1001 K
b100101010000000000110011 )
b100101010000000000110011 P
b1101 9
b1101 O
b1 -
b1 @
b1 D
b1 L
b1110 ;
b10 6
b10 <
1"
#30
0"
#31
b111 -
b111 @
b111 D
b111 L
b111 C
b111 F
b111 ,
b111 A
b111 H
b1000 *
b1000 J
b1010 M
b100101000000010100110011 )
b100101000000010100110011 P
b1110 9
b1110 O
b1111 ;
1"
#32
0"
#33
b1110 -
b1110 @
b1110 D
b1110 L
b1110 C
b11111111111111111111111111111001 G
b0 F
b111 .
b111 =
b1010 *
b1010 J
b111 +
b111 I
b111 K
b1000000011101010000010100110011 )
b1000000011101010000010100110011 P
b1111 9
b1111 O
b10000 ;
1"
#34
0"
#35
08
b10101 -
b10101 @
b10101 D
b10101 L
b10101 C
b111 F
b1110 ,
b1110 A
b1110 H
b111 !
b111 '
b111 7
1"
#36
0"
#37
b1110 !
b1110 '
b1110 7
1"
